{
  "db": "PostgreSQL",
  "064f90efe82bd2b684ebb6f45f69f753b283b5a1c80322192be256d3656ac4e4": {
    "query": "SELECT * FROM players WHERE name = $1",
    "describe": {
      "columns": [
        {
          "ordinal": 0,
          "name": "name",
          "type_info": "Varchar"
        },
        {
          "ordinal": 1,
          "name": "number_of_games",
          "type_info": "Int4"
        },
        {
          "ordinal": 2,
          "name": "number_of_wins",
          "type_info": "Int4"
        },
        {
          "ordinal": 3,
          "name": "number_of_ties",
          "type_info": "Int4"
        },
        {
          "ordinal": 4,
          "name": "number_of_losses",
          "type_info": "Int4"
        },
        {
          "ordinal": 5,
          "name": "number_of_rocks",
          "type_info": "Int4"
        },
        {
          "ordinal": 6,
          "name": "number_of_papers",
          "type_info": "Int4"
        },
        {
          "ordinal": 7,
          "name": "number_of_scissors",
          "type_info": "Int4"
        }
      ],
      "parameters": {
        "Left": [
          "Text"
        ]
      },
      "nullable": [
        false,
        false,
        false,
        false,
        false,
        false,
        false,
        false
      ]
    }
  },
  "0b88c924cdf9232d22e9d0edcfe739395f4db79729878baf333ac791daff3dde": {
    "query": "\n          SELECT game_id, time, player_a, player_b ,hand_a as \"hand_a: _\", hand_b as \"hand_b:_\" FROM games\n          ORDER BY games.time DESC\n          OFFSET $1\n          LIMIT $2\n        ",
    "describe": {
      "columns": [
        {
          "ordinal": 0,
          "name": "game_id",
          "type_info": "Varchar"
        },
        {
          "ordinal": 1,
          "name": "time",
          "type_info": "Int8"
        },
        {
          "ordinal": 2,
          "name": "player_a",
          "type_info": "Varchar"
        },
        {
          "ordinal": 3,
          "name": "player_b",
          "type_info": "Varchar"
        },
        {
          "ordinal": 4,
          "name": "hand_a: _",
          "type_info": {
            "Custom": {
              "name": "hand",
              "kind": {
                "Enum": [
                  "ROCK",
                  "PAPER",
                  "SCISSORS"
                ]
              }
            }
          }
        },
        {
          "ordinal": 5,
          "name": "hand_b:_",
          "type_info": {
            "Custom": {
              "name": "hand",
              "kind": {
                "Enum": [
                  "ROCK",
                  "PAPER",
                  "SCISSORS"
                ]
              }
            }
          }
        }
      ],
      "parameters": {
        "Left": [
          "Int8",
          "Int8"
        ]
      },
      "nullable": [
        false,
        false,
        false,
        false,
        false,
        false
      ]
    }
  },
  "12ab885bede5df18aad6cf87fd46d4286e88effcdb58571a58ddc2fe00899f7e": {
    "query": "SELECT COUNT(*) FROM players",
    "describe": {
      "columns": [
        {
          "ordinal": 0,
          "name": "count",
          "type_info": "Int8"
        }
      ],
      "parameters": {
        "Left": []
      },
      "nullable": [
        null
      ]
    }
  },
  "1d762a033068a0b74c96d5052cc715d874e797400ba051faffdf0166ca68921f": {
    "query": "INSERT INTO games VALUES ( $1, $2, $3, $4, $5, $6)",
    "describe": {
      "columns": [],
      "parameters": {
        "Left": [
          "Varchar",
          "Int8",
          "Varchar",
          "Varchar",
          {
            "Custom": {
              "name": "hand",
              "kind": {
                "Enum": [
                  "ROCK",
                  "PAPER",
                  "SCISSORS"
                ]
              }
            }
          },
          {
            "Custom": {
              "name": "hand",
              "kind": {
                "Enum": [
                  "ROCK",
                  "PAPER",
                  "SCISSORS"
                ]
              }
            }
          }
        ]
      },
      "nullable": []
    }
  },
  "29a58ec3403e0f3bd2036d2e3b252fe05ebfbeee7466ef4a5fb51718dd20f97e": {
    "query": "\n                        SELECT *\n                        FROM players\n                        ORDER BY name ASC\n                        OFFSET $1\n                        LIMIT $2\n                     ",
    "describe": {
      "columns": [
        {
          "ordinal": 0,
          "name": "name",
          "type_info": "Varchar"
        },
        {
          "ordinal": 1,
          "name": "number_of_games",
          "type_info": "Int4"
        },
        {
          "ordinal": 2,
          "name": "number_of_wins",
          "type_info": "Int4"
        },
        {
          "ordinal": 3,
          "name": "number_of_ties",
          "type_info": "Int4"
        },
        {
          "ordinal": 4,
          "name": "number_of_losses",
          "type_info": "Int4"
        },
        {
          "ordinal": 5,
          "name": "number_of_rocks",
          "type_info": "Int4"
        },
        {
          "ordinal": 6,
          "name": "number_of_papers",
          "type_info": "Int4"
        },
        {
          "ordinal": 7,
          "name": "number_of_scissors",
          "type_info": "Int4"
        }
      ],
      "parameters": {
        "Left": [
          "Int8",
          "Int8"
        ]
      },
      "nullable": [
        false,
        false,
        false,
        false,
        false,
        false,
        false,
        false
      ]
    }
  },
  "48abd6244b89b496cf759bdd84961824b8b11c4922b45405864c9b4ff58579f7": {
    "query": "INSERT INTO visited_pages VALUES ( $1 )",
    "describe": {
      "columns": [],
      "parameters": {
        "Left": [
          "Varchar"
        ]
      },
      "nullable": []
    }
  },
  "68830f71c41d95457b58754254206ea4d6702efdfec9e4ad75e5bf79e0e4121d": {
    "query": "INSERT INTO players VALUES ($1, 1, $2, $3, $4, $5, $6, $7 )\n                            ON CONFLICT ON CONSTRAINT players_pkey DO\n                            UPDATE SET\n                            number_of_games = players.number_of_games + 1,\n                            number_of_wins = players.number_of_wins + $2,\n                            number_of_ties = players.number_of_ties + $3,\n                            number_of_losses = players.number_of_losses + $4,\n                            number_of_rocks = players.number_of_rocks + $5,\n                            number_of_papers = players.number_of_papers + $6,\n                            number_of_scissors = players.number_of_scissors + $7\n                         ",
    "describe": {
      "columns": [],
      "parameters": {
        "Left": [
          "Varchar",
          "Int4",
          "Int4",
          "Int4",
          "Int4",
          "Int4",
          "Int4"
        ]
      },
      "nullable": []
    }
  },
  "b4f1017aec110c927c6836cdbe3cfe8d92a7c98a6c80055ad400e0a0ffd43ac5": {
    "query": "\n          SELECT game_id, time, player_a, player_b ,hand_a as \"hand_a: _\", hand_b as \"hand_b:_\" FROM games\n          WHERE player_a =  $1 OR player_b = $1\n          ORDER BY games.time DESC\n          OFFSET $2\n          LIMIT $3\n        ",
    "describe": {
      "columns": [
        {
          "ordinal": 0,
          "name": "game_id",
          "type_info": "Varchar"
        },
        {
          "ordinal": 1,
          "name": "time",
          "type_info": "Int8"
        },
        {
          "ordinal": 2,
          "name": "player_a",
          "type_info": "Varchar"
        },
        {
          "ordinal": 3,
          "name": "player_b",
          "type_info": "Varchar"
        },
        {
          "ordinal": 4,
          "name": "hand_a: _",
          "type_info": {
            "Custom": {
              "name": "hand",
              "kind": {
                "Enum": [
                  "ROCK",
                  "PAPER",
                  "SCISSORS"
                ]
              }
            }
          }
        },
        {
          "ordinal": 5,
          "name": "hand_b:_",
          "type_info": {
            "Custom": {
              "name": "hand",
              "kind": {
                "Enum": [
                  "ROCK",
                  "PAPER",
                  "SCISSORS"
                ]
              }
            }
          }
        }
      ],
      "parameters": {
        "Left": [
          "Text",
          "Int8",
          "Int8"
        ]
      },
      "nullable": [
        false,
        false,
        false,
        false,
        false,
        false
      ]
    }
  },
  "e4f5f6f27f72acef5dfa59efb4639666a014e20a72d67e9ae1c0ea71b553999c": {
    "query": "SELECT COUNT(*) FROM games",
    "describe": {
      "columns": [
        {
          "ordinal": 0,
          "name": "count",
          "type_info": "Int8"
        }
      ],
      "parameters": {
        "Left": []
      },
      "nullable": [
        null
      ]
    }
  }
}